{
  "customer": {
    "purchases": [
      {
        "number": "B001-002306",
        "date": "2020-01-15",
        "products": [
          {
            "sku": "101",
            "name": "Cat Chow 1KG"
          }
        ]
      },
      {
        "number": "B001-002307",
        "date": "2020-05-08",
        "products": [
          {
            "sku": "101",
            "name": "Cat Chow 1KG"
          }
        ]
      },
      {
        "number": "B001-002308",
        "date": "2020-05-23",
        "products": [
          {
            "sku": "101",
            "name": "Cat Chow 1KG"
          } ]
      },
      {
        "number": "B001-002309",
        "date": "2020-07-27",
        "products": [
          {
            "sku": "101",
            "name": "Cat Chow 1KG"
          }          
        ]
      }
    ]
  }
}